%YAML 1.1
%TAG !u! tag:unity3d.com,2011:
--- !u!1045 &1
EditorBuildSettings:
  m_ObjectHideFlags: 0
  serializedVersion: 2
  m_Scenes:
  - enabled: 0
    path: 
    guid: 00000000000000000000000000000000
  - enabled: 1
    path: Assets/Scenes/Main.unity
    guid: 0315eee4fbe114c4c9d7f05eca16fecb
  - enabled: 1
    path: Assets/Scenes/In-Game.unity
    guid: cb0b9d16a01c9ca47b18df1477256a65
  - enabled: 1
    path: Assets/Scenes/Arena.unity
    guid: 9ed753803ffad6f4a9feb2ca2b2c3b81
  m_configObjects: {}
